…
Here, I will begin by using a life expectancy of less than 65 as a 'low life expectancy'.  *__BUT__*, I will examine "high life expectancy" instead in my tables and plots.  To do so, I wll define a life expectancy above 65 as "long".  This is an arbitrary choice, but I chose this value for a few reasons.  The first is that this is a common age for retirement in north america, and so I will see how many countries have a life expectancy that is past a common retirement age.  I've also chosen this value as most countries had a life expectancy below this in 1952, and I want to see how many have past this threshold, and at what point they did.

### How many above 65 life expectancy in 1952?

First, we will ask how many countries on each continent have life expectancies above 65 in 1952.


```r
gapminder %>%
  filter(year==1952) %>%
  group_by(continent)
```

```
## # A tibble: 142 x 6
## # Groups:   continent [5]
##    country     continent  year lifeExp      pop gdpPercap
##    <fct>       <fct>     <int>   <dbl>    <int>     <dbl>
##  1 Afghanistan Asia       1952    28.8  8425333      779.
##  2 Albania     Europe     1952    55.2  1282697     1601.
##  3 Algeria     Africa     1952    43.1  9279525     2449.
##  4 Angola      Africa     1952    30.0  4232095     3521.
##  5 Argentina   Americas   1952    62.5 17876956     5911.
##  6 Australia   Oceania    1952    69.1  8691212    10040.
##  7 Austria     Europe     1952    66.8  6927772     6137.
##  8 Bahrain     Asia       1952    50.9   120447     9867.
##  9 Bangladesh  Asia       1952    37.5 46886859      684.
## 10 Belgium     Europe     1952    68    8730405     8343.
## # … with 132 more rows
```
…
